…
# from Wikipedia
str <- paste(
  "R is a programming language and free software environment",
  "for statistical computing and graphics supported by the R Foundation",
  "for Statistical Computing."
)

# tokenize
(tokens <- word_tokenize(str))
#> List (23 items)

# Parts of speech
pos_tag(tokens, to_r = TRUE) # titdy R data structure
#> # A tibble: 23 x 2
#>    word        tag  
#>    <chr>       <chr>
#>  1 R           NNP  
#>  2 is          VBZ  
#>  3 a           DT   
#>  4 programming JJ   
#>  5 language    NN   
#>  6 and         CC   
#>  7 free        JJ   
#>  8 software    NN   
#>  9 environment NN   
#> 10 for         IN   
#> # … with 13 more rows
…
